…
```
## [1] 1907
```

```r
predefined_geneset <- predefined_geneset[1:200,] # Only retain the top 200 most significant genes
predefined_geneset
```

```
## # A tibble: 200 × 4
##    p_val p_val_adj cluster   gene    
##    <dbl>     <dbl> <chr>     <chr>   
##  1     0         0 L6 IT CTX Dmkn    
##  2     0         0 L6 IT CTX Osr1    
##  3     0         0 L6 IT CTX Blnk    
##  4     0         0 L6 IT CTX Bmp3    
##  5     0         0 L6 IT CTX Col6a1  
##  6     0         0 L6 IT CTX Slc26a4 
##  7     0         0 L6 IT CTX Sulf1   
##  8     0         0 L6 IT CTX Adamts13
##  9     0         0 L6 IT CTX Aspg    
## 10     0         0 L6 IT CTX Dnah14  
## # … with 190 more rows
```
…
